<?xml version="1.0" encoding="utf-8"?>
<!-- Generator: Adobe Illustrator 16.0.0, SVG Export Plug-In . SVG Version: 6.00 Build 0)  -->
<!DOCTYPE svg PUBLIC "-//W3C//DTD SVG 1.1//EN" "http://www.w3.org/Graphics/SVG/1.1/DTD/svg11.dtd">
<svg version="1.1" id="Layer_1" xmlns="http://www.w3.org/2000/svg" xmlns:xlink="http://www.w3.org/1999/xlink" x="0px" y="0px"
	 width="215px" height="85px" viewBox="0 0 215 85" enable-background="new 0 0 215 85" xml:space="preserve">
<g>
	<path fill-rule="evenodd" clip-rule="evenodd" fill="#454545" d="M10.988,54.498c52.509,0,105.019,0,157.529,0
		c1.245,0.559,2.641,0.922,3.695,1.732c1.133,0.871,2.696,2.168,2.686,3.267c-0.01,1.111-1.519,2.706-2.73,3.194
		c-2.03,0.818-4.344,0.936-6.543,1.33c-2.341,0.42-4.866,0.416-6.969,1.36c-1.552,0.697-3.551,2.644-3.518,3.99
		c0.031,1.374,2.069,3.301,3.645,3.9c2.423,0.926,5.194,1.236,7.827,1.265c11.99,0.122,23.984,0.025,35.978,0.079
		c2.246,0.01,4.904-0.253,6.933,0.509c1.776,0.666,2.5,0.521,4.41,3.938c-1.618,3.229-3.346,3.541-4.41,4.021
		c-2.109,0.95-4.817,0.791-7.188,0.794c-41.763,0.052-83.526,0.049-125.291,0.003c-2.231-0.002-4.651-0.04-6.638-0.88
		c-2.667-1.126-4.341-1.563-4.759-4.037c0.292-2.963,2.902-3.004,4.671-3.745c1.732-0.724,3.877-0.569,5.845-0.6
		c4.656-0.073,9.324,0.17,13.963-0.105c2.754-0.161,5.678-0.599,8.145-1.739c3.71-1.718,3.705-5.271,0.001-6.941
		c-2.48-1.118-5.406-1.646-8.147-1.706c-9.307-0.202-18.623-0.078-27.935-0.079c-15.379,0-30.759,0.037-46.138-0.036
		c-2.654-0.013-5.439-0.082-7.91-0.897c-1.539-0.508-3.298-2.32-3.612-3.828c-0.19-0.913,2.098-2.479,3.449-3.524
		C8.81,55.117,9.974,54.904,10.988,54.498z"/>
	<path fill-rule="evenodd" clip-rule="evenodd" fill="#454545" d="M24.683,74.896c-5.353,0-10.711-0.137-16.057,0.051
		c-3.196,0.114-7.434,0.282-7.62,4.266c-0.198,4.223,4.25,4.518,7.288,4.591c10.841,0.261,21.696,0.27,32.536-0.009
		c3.004-0.078,7.412-0.373,7.175-4.694c-0.206-3.75-4.198-4.04-7.265-4.145C35.394,74.772,30.036,74.904,24.683,74.896z"/>
	<path fill-rule="evenodd" clip-rule="evenodd" fill="#454545" d="M24.683,74.9c5.353,0.004,10.711-0.128,16.057,0.055
		c3.067,0.104,7.06,0.395,7.265,4.145c0.236,4.321-4.171,4.616-7.175,4.694c-10.839,0.278-21.695,0.27-32.536,0.009
		c-3.038-0.073-7.486-0.368-7.288-4.591c0.186-3.983,4.424-4.151,7.62-4.266C13.972,74.759,19.331,74.896,24.683,74.9z"/>
</g>
<g>
	<path fill-rule="evenodd" clip-rule="evenodd" fill="#FFFFFF" d="M95.469,12.416c0-2.417-0.003-4.67,0-6.923
		c0.003-2.746,0.726-3.489,3.418-3.49c10.631-0.003,21.263-0.003,31.892,0c2.639,0.001,3.4,0.761,3.414,3.361
		c0.01,2.218,0.027,4.435,0.049,6.652c0,0.081,0.076,0.16,0.199,0.4c2.584,0,5.252-0.002,7.918,0.001
		c2.533,0.004,3.324,0.78,3.328,3.303c0.006,5.639,0.023,11.278-0.02,16.917c-0.008,0.96,0.279,1.592,0.982,2.258
		c5.523,5.238,7.465,11.653,5.352,18.932c-2.131,7.341-7.26,11.841-14.791,13.15c-6.561,1.142-12.229-0.953-16.775-5.854
		c-0.658-0.71-1.281-0.994-2.244-0.991c-10.492,0.035-20.985,0.022-31.477,0.021c-2.708,0-3.452-0.742-3.452-3.452
		c-0.002-13.636-0.002-27.271,0-40.907c0-2.656,0.718-3.374,3.354-3.377C89.479,12.413,92.343,12.416,95.469,12.416z
		 M116.648,55.094c-2.293-7.352-1.094-14.001,4.328-19.49c5.467-5.535,12.156-6.752,19.609-4.51c0-4.613,0-9.101,0-13.608
		c-17.463,0-34.819,0-52.235,0c0,12.566,0,25.054,0,37.608C97.766,55.094,107.087,55.094,116.648,55.094z M147.777,48.655
		c0.004-7.56-6.139-13.696-13.662-13.65c-7.465,0.046-13.568,6.179-13.572,13.636c-0.004,7.46,6.076,13.581,13.557,13.646
		C141.613,62.352,147.773,56.214,147.777,48.655z M129.121,7.082c-9.615,0-19.061,0-28.535,0c0,1.806,0,3.522,0,5.251
		c9.568,0,19.014,0,28.535,0C129.121,10.561,129.121,8.872,129.121,7.082z"/>
	<path fill-rule="evenodd" clip-rule="evenodd" fill="#FFFFFF" d="M131.66,51.137c-2.166,0-4.191,0.026-6.215-0.009
		c-1.535-0.027-2.506-0.809-2.701-2.068c-0.242-1.578,0.824-2.83,2.57-2.896c1.57-0.061,3.143-0.017,4.715-0.019
		c0.492-0.001,0.986,0,1.631,0c0-2.185-0.035-4.207,0.01-6.228c0.047-2.105,1.84-3.344,3.561-2.501
		c1.021,0.501,1.436,1.355,1.428,2.481c-0.014,1.94,0.016,3.882,0.033,5.822c0,0.08,0.076,0.161,0.207,0.425
		c1.787,0,3.668-0.033,5.549,0.018c0.672,0.019,1.416,0.096,1.994,0.4c0.984,0.52,1.391,1.459,1.145,2.582
		c-0.258,1.171-1.012,1.894-2.211,1.946c-1.707,0.074-3.42,0.034-5.129,0.052c-0.496,0.005-0.99,0.042-1.594,0.069
		c0,2.105,0.014,4.086-0.004,6.066c-0.016,1.749-1.021,2.883-2.5,2.864c-1.473-0.019-2.465-1.158-2.484-2.916
		C131.643,55.25,131.66,53.273,131.66,51.137z"/>
</g>
</svg>
