<?xml version="1.0" encoding="utf-8"?>
<!-- Generator: Adobe Illustrator 16.0.0, SVG Export Plug-In . SVG Version: 6.00 Build 0)  -->
<!DOCTYPE svg PUBLIC "-//W3C//DTD SVG 1.1//EN" "http://www.w3.org/Graphics/SVG/1.1/DTD/svg11.dtd">
<svg version="1.1" id="Layer_1" xmlns="http://www.w3.org/2000/svg" xmlns:xlink="http://www.w3.org/1999/xlink" x="0px" y="0px"
	 width="50px" height="50px" viewBox="0 0 50 50" enable-background="new 0 0 50 50" xml:space="preserve">
<g>
	<path fill-rule="evenodd" clip-rule="evenodd" fill="#FFFFFF" d="M23.573,32.414c0-4.725-0.006-9.448,0.007-14.172
		c0.001-0.722-0.27-1.21-0.944-1.483c-1.647-0.666-3.267-1.41-4.942-1.996c-5.237-1.83-10.633-2.796-16.191-2.778
		C0.394,11.989,0,12.418,0,13.543c0,9.373,0,18.744,0,28.117c0,1.114,0.412,1.477,1.527,1.536c2.108,0.112,4.224,0.187,6.315,0.449
		c4.952,0.621,9.698,2.015,14.241,4.087c0.122,0.056,0.252,0.108,0.384,0.127c0.668,0.099,1.104-0.35,1.105-1.138
		C23.574,41.952,23.573,37.183,23.573,32.414z M26.432,32.46c0,4.77-0.002,9.539,0.002,14.309c0,0.925,0.646,1.344,1.488,0.963
		c6.592-2.986,13.504-4.501,20.738-4.548c0.871-0.005,1.338-0.482,1.338-1.354c0.002-9.493,0.002-18.987,0-28.48
		c0-0.885-0.484-1.394-1.379-1.352c-1.867,0.088-3.74,0.148-5.598,0.349c-5.439,0.588-10.627,2.105-15.592,4.404
		c-0.707,0.328-1.01,0.801-1.008,1.583C26.441,23.042,26.432,27.751,26.432,32.46z M22.011,13.731
		c0.021-0.041,0.041-0.082,0.061-0.123c-0.103-0.088-0.192-0.199-0.309-0.26c-2.174-1.137-4.309-2.36-6.538-3.377
		C11.636,8.333,7.881,7.183,3.963,6.613C3.432,6.536,3.255,6.658,3.152,7.188c-0.1,0.518-0.191,1.037-0.287,1.555
		C2.762,9.306,2.933,9.506,3.505,9.562c1.89,0.184,3.788,0.313,5.665,0.585c4.282,0.621,8.412,1.819,12.407,3.481
		C21.712,13.685,21.866,13.698,22.011,13.731z M27.959,13.591c0.023,0.042,0.045,0.083,0.068,0.124
		c0.158-0.047,0.32-0.082,0.471-0.144c2.424-1.008,4.908-1.837,7.453-2.477c3.461-0.87,6.973-1.396,10.537-1.553
		c0.563-0.024,0.754-0.268,0.654-0.815c-0.07-0.37-0.141-0.74-0.207-1.111c-0.197-1.094-0.252-1.133-1.359-0.943
		c-6.213,1.071-11.941,3.405-17.314,6.657C28.148,13.397,28.059,13.503,27.959,13.591z M42.617,4.208
		c-0.156-0.391-0.338-0.852-0.525-1.31c-0.322-0.791-0.451-0.852-1.254-0.551c-5.107,1.914-9.656,4.767-13.84,8.235
		c-0.127,0.106-0.273,0.198-0.375,0.325c-0.08,0.103-0.107,0.249-0.156,0.376c0.133,0.003,0.271,0.028,0.398,0.003
		c0.098-0.02,0.182-0.103,0.271-0.158c2.42-1.482,4.941-2.763,7.564-3.845c2.385-0.983,4.828-1.787,7.328-2.416
		C42.352,4.786,42.598,4.662,42.617,4.208z M8.494,2.127C8.361,2.256,8.15,2.383,8.057,2.568C7.848,2.984,7.695,3.428,7.524,3.862
		c-0.256,0.647-0.142,0.884,0.518,1.05c5.329,1.338,10.326,3.46,15.007,6.333c0.127,0.078,0.313,0.063,0.472,0.091
		c-0.075-0.157-0.11-0.359-0.231-0.465c-0.521-0.457-1.058-0.896-1.604-1.324c-3.832-2.999-7.958-5.485-12.528-7.2
		C8.975,2.279,8.788,2.224,8.494,2.127z"/>
	<path fill-rule="evenodd" clip-rule="evenodd" fill="#FFFFFF" d="M23.573,32.414c0,4.769,0.001,9.538,0,14.308
		c0,0.788-0.437,1.236-1.105,1.138c-0.131-0.019-0.262-0.071-0.384-0.127c-4.543-2.072-9.289-3.466-14.241-4.087
		c-2.091-0.263-4.208-0.337-6.315-0.449C0.412,43.137,0,42.774,0,41.66c0-9.373,0-18.745,0-28.117c0-1.125,0.394-1.554,1.502-1.557
		c5.558-0.019,10.954,0.948,16.191,2.778c1.675,0.585,3.295,1.33,4.942,1.996c0.674,0.272,0.945,0.761,0.944,1.483
		C23.567,22.966,23.573,27.689,23.573,32.414z"/>
	<path fill-rule="evenodd" clip-rule="evenodd" fill="#FFFFFF" d="M26.432,32.46c0-4.709,0.01-9.417-0.01-14.126
		c-0.002-0.782,0.301-1.255,1.008-1.583c4.965-2.299,10.152-3.816,15.592-4.404c1.857-0.201,3.73-0.261,5.598-0.349
		c0.895-0.042,1.379,0.467,1.379,1.352c0.002,9.494,0.002,18.987,0,28.48c0,0.871-0.467,1.349-1.338,1.354
		c-7.234,0.047-14.146,1.562-20.738,4.548c-0.842,0.381-1.488-0.038-1.488-0.963C26.43,41.999,26.432,37.229,26.432,32.46z"/>
	<path fill-rule="evenodd" clip-rule="evenodd" fill="#FFFFFF" d="M22.011,13.731c-0.145-0.033-0.299-0.046-0.435-0.103
		c-3.995-1.662-8.125-2.86-12.407-3.481C7.292,9.875,5.395,9.746,3.505,9.562C2.933,9.506,2.762,9.306,2.866,8.743
		c0.096-0.519,0.187-1.038,0.287-1.555c0.103-0.53,0.28-0.652,0.811-0.575c3.918,0.569,7.673,1.72,11.262,3.357
		c2.229,1.018,4.363,2.241,6.538,3.377c0.117,0.061,0.207,0.172,0.309,0.26C22.051,13.649,22.031,13.69,22.011,13.731z"/>
	<path fill-rule="evenodd" clip-rule="evenodd" fill="#FFFFFF" d="M27.959,13.591c0.1-0.088,0.189-0.194,0.303-0.262
		c5.373-3.252,11.102-5.586,17.314-6.657c1.107-0.19,1.162-0.151,1.359,0.943c0.066,0.371,0.137,0.741,0.207,1.111
		c0.1,0.547-0.092,0.791-0.654,0.815c-3.564,0.158-7.076,0.684-10.537,1.553c-2.545,0.64-5.029,1.468-7.453,2.477
		c-0.15,0.063-0.313,0.097-0.471,0.144C28.004,13.674,27.982,13.633,27.959,13.591z"/>
	<path fill-rule="evenodd" clip-rule="evenodd" fill="#FFFFFF" d="M42.617,4.208c-0.02,0.455-0.266,0.579-0.588,0.66
		c-2.5,0.629-4.943,1.433-7.328,2.416c-2.623,1.082-5.145,2.363-7.564,3.845c-0.09,0.055-0.174,0.138-0.271,0.158
		c-0.127,0.025-0.266,0-0.398-0.003c0.049-0.127,0.076-0.273,0.156-0.376c0.102-0.127,0.248-0.219,0.375-0.325
		c4.184-3.468,8.732-6.321,13.84-8.235c0.803-0.301,0.932-0.24,1.254,0.551C42.279,3.356,42.461,3.817,42.617,4.208z"/>
	<path fill-rule="evenodd" clip-rule="evenodd" fill="#FFFFFF" d="M8.494,2.127c0.294,0.097,0.481,0.152,0.664,0.221
		c4.569,1.715,8.696,4.201,12.528,7.2c0.546,0.427,1.083,0.867,1.604,1.324c0.121,0.106,0.156,0.308,0.231,0.465
		c-0.159-0.028-0.344-0.013-0.472-0.091C18.368,8.372,13.371,6.25,8.042,4.912c-0.66-0.166-0.774-0.403-0.518-1.05
		c0.171-0.434,0.324-0.878,0.533-1.293C8.15,2.383,8.361,2.256,8.494,2.127z"/>
</g>
</svg>
