<?xml version="1.0" encoding="utf-8"?>
<!-- Generator: Adobe Illustrator 16.0.0, SVG Export Plug-In . SVG Version: 6.00 Build 0)  -->
<!DOCTYPE svg PUBLIC "-//W3C//DTD SVG 1.1//EN" "http://www.w3.org/Graphics/SVG/1.1/DTD/svg11.dtd">
<svg version="1.1" id="Layer_1" xmlns="http://www.w3.org/2000/svg" xmlns:xlink="http://www.w3.org/1999/xlink" x="0px" y="0px"
	 width="30px" height="30px" viewBox="0 0 30 30" enable-background="new 0 0 30 30" xml:space="preserve">
<g>
	<g>
		<path d="M-40.875-19.259c0.004-8.27,6.737-14.994,15.008-14.991c8.27,0.003,14.995,6.737,14.992,15.008
			c-0.004,8.267-6.742,14.997-15.01,14.992C-34.153-4.255-40.879-10.989-40.875-19.259z M-16.527-9.655
			c5.159-4.88,5.653-13.523,0.143-19.071c-5.558-5.594-14.687-5.199-19.778,0.88c-4.887,5.834-3.688,13.942,1.001,18.231
			c0.02-0.097,0.031-0.188,0.055-0.272c0.177-0.64,0.27-1.318,0.548-1.911c1.608-3.424,4.482-4.979,8.112-5.325
			c1.263-0.12,2.512,0.09,3.714,0.493c2.511,0.839,4.452,2.362,5.538,4.825C-16.892-11.12-16.742-10.367-16.527-9.655z
			 M-25.904-5.842c2.854-0.024,5.368-0.949,7.551-2.781c0.146-0.125,0.214-0.249,0.206-0.447c-0.062-1.486-0.619-2.77-1.61-3.862
			c-2.947-3.248-8.421-3.511-11.672-0.564c-1.312,1.188-2.097,2.638-2.173,4.436c-0.008,0.185,0.048,0.307,0.188,0.425
			C-31.242-6.806-28.738-5.877-25.904-5.842z"/>
		<path d="M-21.013-23.052c-0.003,2.792-2.103,4.906-4.869,4.903c-2.767-0.005-4.864-2.128-4.855-4.916
			c0.01-2.783,2.092-4.878,4.855-4.885C-23.114-27.958-21.011-25.84-21.013-23.052z M-25.886-19.739
			c1.906,0.005,3.287-1.378,3.29-3.296c0.006-1.929-1.359-3.324-3.257-3.33c-1.914-0.006-3.297,1.367-3.305,3.283
			C-29.163-21.137-27.801-19.743-25.886-19.739z"/>
	</g>
</g>
<g>
	<path d="M-8.929-47.486c0-0.33,0.008-0.631-0.002-0.934c-0.011-0.303,0.108-0.525,0.352-0.701c0.292-0.209,0.584-0.42,0.863-0.646
		c0.076-0.063,0.145-0.182,0.146-0.275c0.006-4.34,0.005-8.682,0.004-13.023c0-0.027-0.01-0.053-0.022-0.116
		c-0.41,0-0.824,0.002-1.237,0c-0.525-0.002-0.786-0.261-0.787-0.785c-0.001-0.957-0.001-1.915,0-2.872
		c0.001-0.41,0.134-0.616,0.51-0.763c4.276-1.689,8.552-3.38,12.835-5.055c0.182-0.072,0.441-0.066,0.625,0.006
		c4.271,1.673,8.54,3.359,12.808,5.045c0.39,0.154,0.521,0.354,0.521,0.785c0.002,0.948,0.002,1.896,0,2.843
		c0,0.541-0.26,0.795-0.805,0.797c-0.379,0.002-0.76,0.001-1.139,0.002c-0.019,0-0.037,0.005-0.104,0.014c0,0.092,0,0.191,0,0.289
		c0,4.247,0.002,8.494-0.003,12.74c0,0.189,0.048,0.314,0.209,0.424c0.289,0.197,0.562,0.416,0.845,0.623
		c0.215,0.158,0.319,0.365,0.315,0.635c-0.005,0.311-0.002,0.621-0.002,0.969c0.233,0,0.448-0.004,0.661,0.002
		c0.416,0.012,0.7,0.283,0.701,0.697c0.008,1.129,0.008,2.258,0,3.385c-0.001,0.412-0.287,0.682-0.707,0.693
		c-0.065,0.002-0.133,0-0.199,0c-8.947,0-17.895,0-26.843,0c-0.699,0-0.911-0.213-0.911-0.918c0-1.033-0.001-2.066,0.001-3.1
		c0-0.488,0.264-0.754,0.752-0.758C-9.352-47.486-9.163-47.486-8.929-47.486z M-8.238-64.568c8.2,0,16.374,0,24.553,0
		c0-0.645,0-1.269,0-1.9c-0.084-0.036-0.16-0.072-0.238-0.103c-3.942-1.558-7.884-3.116-11.829-4.665
		c-0.13-0.051-0.316-0.041-0.45,0.012c-3.065,1.2-6.126,2.411-9.189,3.62c-0.949,0.375-1.898,0.751-2.846,1.128
		C-8.238-65.835-8.238-65.211-8.238-64.568z M0.285-47.498c0-0.305,0.013-0.588-0.003-0.871c-0.02-0.348,0.117-0.596,0.402-0.787
		c0.251-0.17,0.48-0.371,0.732-0.537c0.176-0.117,0.24-0.25,0.238-0.465C1.647-54.393,1.65-58.629,1.65-62.863c0-0.1,0-0.2,0-0.295
		c-1.501,0-2.963,0-4.42,0c-0.006,0.032-0.01,0.04-0.01,0.05c-0.002,4.357-0.005,8.716,0,13.074c0,0.092,0.073,0.211,0.148,0.271
		c0.287,0.232,0.587,0.447,0.886,0.666c0.224,0.162,0.331,0.377,0.326,0.656c-0.007,0.309-0.002,0.619-0.002,0.943
		C-0.847-47.498-0.301-47.498,0.285-47.498z M6.447-63.169c-0.009,0.051-0.019,0.078-0.019,0.106
		c-0.001,4.338-0.003,8.679,0.005,13.017c0,0.094,0.067,0.213,0.14,0.275c0.217,0.186,0.439,0.365,0.684,0.51
		c0.425,0.254,0.596,0.605,0.541,1.094c-0.026,0.219-0.006,0.445-0.006,0.668c0.586,0,1.133,0,1.708,0
		c0-0.332,0.003-0.652-0.002-0.971C9.494-48.729,9.594-48.93,9.8-49.082c0.28-0.207,0.555-0.428,0.844-0.623
		c0.168-0.113,0.226-0.24,0.225-0.445c-0.006-4.242-0.005-8.487-0.005-12.731c0-0.092,0-0.184,0-0.288
		C9.377-63.169,7.923-63.169,6.447-63.169z M-8.908-46.109c0,0.689,0,1.355,0,2.014c8.648,0,17.275,0,25.897,0
		c0-0.684,0-1.342,0-2.014C8.353-46.109-0.268-46.109-8.908-46.109z M-2.816-47.492c0.098-0.436,0.041-0.775-0.381-0.994
		c-0.19-0.098-0.344-0.266-0.526-0.385c-0.316-0.205-0.436-0.48-0.435-0.861c0.009-4.369,0.007-8.74,0.007-13.11
		c0-0.109,0-0.218,0-0.325c-0.704,0-1.363,0-2.048,0c0,0.126,0,0.237,0,0.35c0,4.369-0.002,8.739,0.006,13.108
		c0,0.357-0.113,0.621-0.411,0.816c-0.212,0.143-0.409,0.307-0.613,0.461c-0.392,0.297-0.435,0.43-0.302,0.939
		C-5.957-47.492-4.395-47.492-2.816-47.492z M6.397-47.492c0.098-0.436,0.04-0.775-0.381-0.994
		c-0.191-0.098-0.345-0.266-0.527-0.385c-0.317-0.205-0.434-0.482-0.434-0.861c0.01-4.369,0.006-8.74,0.006-13.11
		c0-0.109,0-0.218,0-0.325c-0.703,0-1.362,0-2.047,0c0,0.127,0,0.238,0,0.35c0,4.369-0.002,8.739,0.005,13.108
		c0.001,0.357-0.112,0.621-0.409,0.818c-0.213,0.143-0.41,0.307-0.613,0.459c-0.393,0.297-0.437,0.43-0.302,0.939
		C3.257-47.492,4.819-47.492,6.397-47.492z M12.228-63.174c0,0.138,0,0.25,0,0.362c0,4.369-0.001,8.74,0.005,13.107
		c0.002,0.359-0.116,0.619-0.412,0.816c-0.212,0.143-0.409,0.307-0.612,0.461c-0.379,0.287-0.434,0.453-0.301,0.926
		c1.572,0,3.141,0,4.699,0c0.112-0.434,0.035-0.768-0.381-0.986c-0.19-0.1-0.344-0.268-0.526-0.385
		c-0.319-0.207-0.431-0.484-0.431-0.863c0.011-4.369,0.007-8.74,0.007-13.11c0-0.108,0-0.217,0-0.329
		C13.578-63.174,12.925-63.174,12.228-63.174z"/>
</g>
<g>
	<path d="M60.2-65.576c-0.163-0.123-0.366-0.204-0.571-0.164c-0.082,0-0.164,0-0.245,0.041l-18.688-0.041l0,0
		c-0.082,0-0.162,0-0.205,0.041c-2.243,0.245-3.957,2.163-3.957,4.447v24.603c0,0.327,0.204,0.654,0.529,0.775
		c0.327,0.124,0.695,0.042,0.899-0.163l2.651-2.61l2.652,2.651c0.164,0.164,0.367,0.245,0.612,0.245s0.448-0.081,0.611-0.245
		l2.653-2.651l2.652,2.651c0.162,0.164,0.367,0.245,0.612,0.245c0.244,0,0.448-0.081,0.612-0.245l2.651-2.651l2.612,2.61
		c0.244,0.245,0.612,0.326,0.897,0.163c0.326-0.121,0.531-0.448,0.531-0.775V-56.64h4.896c0.448,0,0.857-0.367,0.857-0.857v-3.794
		C63.383-63.292,62.036-65.046,60.2-65.576z M55.997-38.729l-1.795-1.795c-0.326-0.327-0.857-0.327-1.184,0l-2.652,2.652
		l-2.652-2.652c-0.163-0.163-0.366-0.245-0.612-0.245c-0.245,0-0.448,0.082-0.612,0.245l-2.651,2.652l-2.652-2.652
		c-0.163-0.163-0.368-0.245-0.613-0.245c-0.204,0-0.448,0.082-0.611,0.245l-1.796,1.795v-22.563c0-1.469,1.143-2.693,2.57-2.775
		c0.04,0,0.04,0,0.082,0l15.913,0.041c-0.448,0.734-0.734,1.673-0.734,2.734v3.59c0,0.082-0.041,0.123-0.041,0.204v18.77H55.997z
		 M61.71-58.354h-3.998v-2.979c0-0.571,0.122-2.407,1.753-2.733c1.308,0.244,2.286,1.387,2.286,2.733v2.979H61.71z"/>
	<path d="M52.814-58.803H41.226c-0.448,0-0.856,0.368-0.856,0.857c0,0.49,0.367,0.857,0.856,0.857h11.589
		c0.449,0,0.856-0.367,0.856-0.857C53.671-58.436,53.264-58.803,52.814-58.803z"/>
	<path d="M41.227-52.764h6.487c0.45,0,0.857-0.368,0.857-0.857s-0.366-0.857-0.857-0.857h-6.487c-0.449,0-0.856,0.367-0.856,0.857
		S40.736-52.764,41.227-52.764z"/>
	<path d="M41.227-48.439h10.119c0.448,0,0.857-0.367,0.857-0.857c0-0.489-0.367-0.856-0.857-0.856H41.227
		c-0.449,0-0.856,0.368-0.856,0.856C40.37-48.807,40.736-48.439,41.227-48.439z"/>
	<path d="M52.814-45.748H41.226c-0.448,0-0.856,0.368-0.856,0.858c0,0.489,0.367,0.856,0.856,0.856h11.589
		c0.449,0,0.856-0.367,0.856-0.856C53.671-45.38,53.264-45.748,52.814-45.748z"/>
</g>
<g>
	<path d="M30,7.959c-0.004-0.13-0.04-0.256-0.109-0.368l-3.154-5.208c-0.463-0.773-1.3-1.247-2.201-1.248H5.464
		c-0.901,0-1.737,0.474-2.201,1.248L0.109,7.591C0.041,7.702,0.003,7.829,0,7.959v18.338c0,1.418,1.149,2.566,2.566,2.566h24.868
		c1.417,0,2.565-1.148,2.565-2.566L30,7.959L30,7.959z M25.488,3.154l2.459,4.072h-8.95l-0.844-4.621h6.384
		C24.93,2.603,25.293,2.813,25.488,3.154z M12.323,8.692h5.318v6.969h-5.318V8.692z M12.47,7.226l0.843-4.621h3.374l0.844,4.621
		H12.47z M4.512,3.154c0.196-0.341,0.56-0.551,0.952-0.55h6.383l-0.844,4.622h-8.95L4.512,3.154z M27.434,27.396H2.566
		c-0.607,0-1.1-0.492-1.1-1.1V8.692h9.389v7.702c0,0.405,0.328,0.733,0.732,0.733h6.786c0.405,0,0.734-0.328,0.734-0.733V8.692
		h9.426v17.605C28.534,26.904,28.041,27.396,27.434,27.396z"/>
	<path d="M10.122,20.136H6.748c-1.449,0-2.622,1.175-2.622,2.622s1.173,2.622,2.622,2.622h3.412
		c1.438-0.003,2.602-1.167,2.602-2.604c-0.001-1.438-1.165-2.604-2.602-2.604L10.122,20.136z M10.122,23.912H6.748
		c-0.629,0-1.137-0.51-1.137-1.137s0.51-1.137,1.137-1.137h3.412c0.638,0,1.154,0.518,1.154,1.156c0,0.637-0.518,1.154-1.154,1.154
		L10.122,23.912z"/>
</g>
</svg>
